<?xml version="1.0" encoding="utf-8"?>
<!-- Generator: Adobe Illustrator 19.0.0, SVG Export Plug-In . SVG Version: 6.00 Build 0)  -->
<svg version="1.1" id="grafika" xmlns="http://www.w3.org/2000/svg" xmlns:xlink="http://www.w3.org/1999/xlink" x="0px" y="0px"
	 viewBox="0 0 199.8 64" style="enable-background:new 0 0 199.8 64;" xml:space="preserve">
<style type="text/css">
	.st0{fill:#00487E;}
	.st1{clip-path:url(#SVGID_3_);}
	.st2{clip-path:url(#SVGID_4_);}
</style>
<g>
	<path class="st0" d="M25.1,14.4c0.5-2.6-0.2-3.9-3.9-3.9c-2.3,0-2.4,0-2.6,0.5c-2,4.5-4.1,9.1-6.2,13.7c-0.2,0.3-0.1,0.4,0.6,0.4
		c3.4,0,5.3-0.4,7.6-2.5C23,20.5,24.6,16.9,25.1,14.4L25.1,14.4L25.1,14.4z M28.2,15.4c-0.4,2-1.9,5.8-5.7,8.5c-2.8,2-6,2.3-9,2.4
		h-1.8c-2,4.3-3.2,6.9-3.9,8.5c-0.8,1.8-0.9,2.2-0.9,2.4c-0.2,1,0.2,1.2,1.3,1.3c1.1,0.1,1.5,0.1,1.4,0.6c-0.1,0.4-0.4,0.5-0.8,0.5
		c-0.4,0-1.1-0.2-4.2-0.2c-3,0-3.7,0.2-4.1,0.2c-0.3,0-0.4-0.2-0.5-0.4v0c0,0,0-0.1,0-0.1c0.1-0.4,0.5-0.5,1.7-0.7
		C3,38.4,3.5,38,4.3,36.2c5.2-11.5,8.3-18.3,9.9-21.7c0.8-1.7,1.2-2.6,1.2-2.8c0.2-0.9-0.2-1-1.4-1.1c-0.4,0-0.6-0.2-0.5-0.6
		c0.1-0.3,0.4-0.5,0.9-0.5c0.8,0,2.3,0.2,3.8,0.2c1.7,0,3.3-0.2,4.9-0.2c1.6,0,3.2,0.3,4.2,1.3C28.5,11.8,28.5,13.6,28.2,15.4
		L28.2,15.4L28.2,15.4z"/>
	<path class="st0" d="M82,23.4c0.3-1.6-0.2-3.4-2.6-3.4c-4.2,0-11.2,6.1-12.9,13.6c-0.9,4.1,0.1,6,2.5,6c1.7,0,3.9-1.2,5.4-2.6
		c2.1-1.8,3.7-3.9,3.8-4.3c0.1-0.2-0.1-0.4-0.2-0.4c-0.3,0-0.4,0.4-1.6,1.7c-2.3,2.4-4.3,3.6-5.9,3.6c-1.5,0-2.1-1.3-1.5-3.9
		c0.2-0.9,0.5-1.8,0.9-2.6C77.5,30.2,81.1,27.6,82,23.4L82,23.4z M79,20.7c1,0,1.3,0.7,1.1,1.7c-0.3,1.3-1.6,6.6-9.8,7.9
		C72.9,23.9,76.9,20.7,79,20.7L79,20.7z"/>
	<path class="st0" d="M79.9,39.4L84,32c2.7-4.9,4.4-8.1,4.6-9c0.1-0.5,0-0.9-0.4-0.9c-0.6,0-1.7,0.9-3.3,2.7c-1.7,1.8-1.6,2.1-2,2.1
		c-0.2,0-0.3-0.1-0.2-0.3c0.2-0.8,5-6.7,7.6-6.7c1.2,0,1.5,0.8,1.2,1.9c-0.5,2.1-2.7,5.6-3.5,7.5l0.1,0.1c2-2.9,7.9-9.5,11.7-9.5
		c1.2,0,1.9,0.9,1.6,2.3c-0.4,1.6-1,2.5-4.6,8.5c-2.9,4.8-3,5.3-3.2,5.9c-0.1,0.5,0.1,0.7,0.3,0.7c0.6,0,1.4-0.6,2.8-2
		c2.2-2.3,2.3-3,2.7-3c0.2,0,0.2,0.2,0.2,0.4c-0.2,0.9-5.2,6.8-7.6,6.8c-1.2,0-1.4-0.9-1.2-1.9c0.3-1.3,1.4-3.5,2.9-5.9
		c3.8-6.1,4.8-7.7,5.1-8.9c0.2-0.8-0.1-1.1-0.6-1.1c-1.8,0-5.8,3.5-10.1,9.1c-1.6,2-4.3,6.3-5,7.6c-0.4,0.8-0.6,1.2-1.1,1.2H79.9
		L79.9,39.4z"/>
	<path class="st0" d="M120.4,20.8c0.1-0.2,0.3-0.5,0.3-0.6c0.1-0.2-0.1-0.3-0.3-0.3h-1.2c-0.5,0-0.6,0.1-0.8,0.4l-0.6,1
		c-0.7-0.6-1.4-1-2.4-1c-4.8,0-13.9,8.4-15.5,15.6c-0.5,2.2-0.2,3.6,1.7,3.6c3.2,0,9.6-7.6,11.6-9.9l0.1,0.1
		c-2.7,4.9-3.9,6.8-4.2,8.3c-0.2,0.8-0.2,1.5,0.8,1.5c2.6,0,7.6-6.2,7.9-7.4c0-0.2,0-0.3-0.2-0.3c-0.4,0-0.3,0.5-1.7,2
		c-1.8,2.1-2.8,2.9-3.1,2.9c-0.2,0-0.4-0.1-0.3-0.6c0.1-0.5,0.3-1.1,1.6-3.4L120.4,20.8L120.4,20.8z M102.5,35.6
		c1-4.3,8.8-14.5,12.8-14.5c1.1,0,1.7,0.7,1.4,1.9c-0.6,2.8-10.4,14.4-13.4,14.4C102.5,37.4,102.3,36.6,102.5,35.6L102.5,35.6z"/>
	<path class="st0" d="M118.1,39.5c1.8-3.8,7.4-15.2,7.7-16.3c0.1-0.4,0.1-0.6-0.2-0.6c-0.5,0-1.5,0.8-2.6,2.2
		c-1.5,1.9-1.3,2.3-1.9,2.3c-0.2,0-0.3-0.1-0.3-0.4c0.1-0.6,4.2-6.4,6.6-6.4c1,0,1.5,0.6,1.2,1.8c-0.2,0.9-1.1,2.6-3.3,7.3l0.1,0.1
		c4.6-7,7.3-9.4,8.9-9.4c1,0,1.2,0.8,0.9,2.1c-0.5,2.4-2.2,3.9-3.1,3.9c-0.6,0-0.9-0.2-0.7-1c0.2-0.9,0.9-1.3,1.1-2.1
		c0.1-0.4,0-0.7-0.3-0.7c-0.8,0-5.5,5.7-10.8,15.5c-0.6,1.1-1,1.7-1.3,1.7H118.1L118.1,39.5z"/>
	<path class="st0" d="M21.5,39.5c1.8-3.8,7.5-15.2,7.7-16.3c0.1-0.4,0.1-0.6-0.2-0.6c-0.5,0-1.5,0.8-2.6,2.2
		c-1.5,1.9-1.3,2.3-1.9,2.3c-0.2,0-0.3-0.1-0.3-0.4c0.1-0.6,4.2-6.4,6.6-6.4c1,0,1.5,0.6,1.2,1.8c-0.2,0.9-1.1,2.6-3.3,7.3l0.1,0.1
		c4.6-7,7.3-9.4,8.9-9.4c1,0,1.2,0.8,0.9,2.1c-0.5,2.4-2.2,3.9-3.1,3.9c-0.6,0-0.9-0.2-0.7-1c0.2-0.9,0.9-1.3,1.1-2.1
		c0.1-0.4,0-0.7-0.3-0.7c-0.8,0-5.5,5.7-10.8,15.5c-0.6,1.1-1,1.7-1.3,1.7H21.5L21.5,39.5z"/>
	<path class="st0" d="M51.7,23.4c0.3-1.6-0.2-3.4-2.6-3.4c-4.2,0-11.2,6.1-12.9,13.6c-0.9,4.1,0.1,6,2.5,6c1.7,0,3.9-1.2,5.4-2.6
		c2.1-1.8,3.7-3.9,3.8-4.3c0.1-0.2-0.1-0.4-0.2-0.4c-0.3,0-0.4,0.4-1.6,1.7c-2.3,2.4-4.3,3.6-5.9,3.6c-1.5,0-2.1-1.3-1.5-3.9
		c0.2-0.9,0.5-1.8,0.9-2.6C47.1,30.2,50.7,27.6,51.7,23.4L51.7,23.4z M48.7,20.7c1,0,1.3,0.7,1.1,1.7c-0.3,1.3-1.6,6.6-9.8,7.9
		C42.5,23.9,46.6,20.7,48.7,20.7L48.7,20.7z"/>
	<path class="st0" d="M53.1,36.3c-0.2,0.9-0.1,1.7,0.9,1.7c4.3,0,11.2-10,11.7-12.1c0.4-1.9-0.5-2.1-0.1-3.9c0.3-1.3,1-1.9,1.6-1.9
		c0.6,0,1.2,0.7,0.8,2.5c-1.4,6.3-10.1,16.8-15.4,16.8c-1.9,0-2.5-1.1-2.1-2.8c0.7-3.3,7.2-12,7.6-13.8c0.1-0.5,0-0.7-0.3-0.7
		c-0.4,0-1.1,0.5-2.6,2c-2.2,2.3-2.2,2.8-2.6,2.8c-0.2,0-0.3,0-0.3-0.2c0.1-0.6,4.7-6.5,7.6-6.5c0.9,0,1.1,0.9,0.9,1.8
		C60.2,24.8,53.8,33.6,53.1,36.3L53.1,36.3z"/>
	<path class="st0" d="M148.3,38.3c0.1-0.5,0.8-0.5,1.7-0.6c0.9,0,1.9-0.3,2.4-1.6c2.9-6.9,5.7-13.8,8.6-20.7
		c0.5-1.2,0.6-1.6,0.7-1.9c0-0.2,0-0.3-0.2-0.3c-0.5,0-3,1.4-3.7,1.4c-0.3,0-0.5-0.1-0.4-0.5c0.1-0.5,0.4-0.6,1.4-1
		c2.1-0.8,4.1-1.8,6-3c0.5-0.3,0.9-0.5,1.2-0.5c0.2,0,0.2,0.1,0.2,0.3c0,0.3-0.4,1.1-0.8,1.9c-3,7.2-6,14.4-9,21.6
		c-0.6,1.5-0.9,2.5-1,3c-0.1,1.1,0.7,1.4,1.6,1.5c0.8,0.1,1.7,0.1,1.6,0.8c0,0.3-0.2,0.5-0.6,0.5c-0.9,0-3.2-0.2-4.8-0.2
		c-1.7,0-3,0.2-4,0.2C148.5,39,148.2,38.9,148.3,38.3L148.3,38.3L148.3,38.3z"/>
	<path class="st0" d="M180.8,13.7c-0.6,4.3-5.8,6.6-8.6,8l0,0c0.5,0,0.9,0,1.3,0.1c2.9,0.6,4.2,2.8,3.8,6.2
		c-0.8,6.4-7.7,12.1-13.5,12.1c-2.8,0-3.7-1.6-3.5-2.8c0.1-1.1,0.8-1.7,1.7-1.7c0.9,0,1.3,0.8,1.3,1.8c0,1.1,0.6,1.7,1.4,1.7
		c4,0,8.9-5.4,9.7-11.5c0.3-2.7-0.6-4.9-3.1-4.9c-2.3,0-3.3,1.6-4,1.6c-0.3,0-0.4-0.2-0.3-0.4c0.1-0.6,2.1-1.7,4.7-3
		c4.2-2.1,6.1-5.4,6.4-7.3c0.2-1.7-0.5-2.9-2.1-2.9c-1.1,0-2.2,0.6-3,1.4c-1.6,1.6-2,2.9-2.5,2.9c-0.3,0-0.4-0.2-0.3-0.6
		c0.1-0.4,2.5-5.1,7-5.1C179.5,9.4,181.1,11.1,180.8,13.7L180.8,13.7L180.8,13.7z"/>
	<g>
		<defs>
			<path id="SVGID_1_" d="M197.7,7.5c-2.5-7.2-17.6-8.6-33.8-3.1C147.7,10,136.5,20.3,139,27.6c1,2.8,3.9,4.8,8.1,5.7
				c-0.9-0.7-1.7-1.5-2.2-2.5c-3.4-6.6,4.7-17.5,18-24.2c13.3-6.8,26.8-6.9,30.2-0.3c3,5.8-2.9,14.9-13.5,21.6
				C192,22.1,199.8,13.7,197.7,7.5L197.7,7.5z"/>
		</defs>
		<defs>
			<rect id="SVGID_2_" y="0.8" width="198.9" height="63.2"/>
		</defs>
		<clipPath id="SVGID_3_">
			<use xlink:href="#SVGID_1_"  style="overflow:visible;"/>
		</clipPath>
		<clipPath id="SVGID_4_" class="st1">
			<use xlink:href="#SVGID_2_"  style="overflow:visible;"/>
		</clipPath>
		<g class="st2">
			<defs>
				<rect id="SVGID_5_" x="137.9" y="1" width="61.1" height="32.4"/>
			</defs>
			<clipPath id="SVGID_6_">
				<use xlink:href="#SVGID_5_"  style="overflow:visible;"/>
			</clipPath>
			<g style="clip-path:url(#SVGID_6_);">
				
					<image style="overflow:visible;" width="168" height="92" xlink:href="data:image/png;base64,iVBORw0KGgoAAAANSUhEUgAAAKkAAABhCAYAAACtboH2AAAACXBIWXMAAB2uAAAdrgHrADpwAAAA
GXRFWHRTb2Z0d2FyZQBBZG9iZSBJbWFnZVJlYWR5ccllPAAAAYpJREFUeNrs09tNwzAAQFE7hCn4
YRQ2gT92YaqOwAgdgAF4tcZNU9c2jfgMiHMkK/EjJYouIQAAwLpiPXl5DA/5cltWv12v8rjON/ka
xnw/5OswzePhOs3jvDZU+/HCXjzvnUbs5ksj1vNhfrmheeHU7M1n06XfW9oPy2v1epr/Xjq9V6j2
2jPlPlVr1V6q19LPz6Uy757bh+58e1+eq8+XZ9pnU783zatn9uf16ewuHfd3YR7peOZw/5rHWz73
ka/veXyG6v3LzeYmPG3qLscu2vs87vzvsrIm0sH34LcTKSIFkSJSECmIFJGCSBEpiBREikhBpCBS
RAoiRaQgUhApIgWRgkgRKYgUkYJIQaSIFEQKIkWkIFJECiIFkSJSECmIFJGCSBEpiBREikhBpCBS
RAoiRaQgUhApIgWRgkgRKYgUkYJIQaSIFEQKIkWkIFJECiIFkSJSECmIFJGCSBEpiBREikhBpCBS
RAoiRaQgUhApIgWRgkj5S8Zu/uyTsLKtTwAA/86XAAMA0vdVx8T93+UAAAAASUVORK5CYII=" transform="matrix(0.3737 0 0 -0.3737 137.0547 34.3839)">
				</image>
			</g>
		</g>
	</g>
	<path class="st0" d="M2.3,54.2H1.7v-7.6h0.7c0.5,0,0.9,0.2,1.1,0.5c0.2,0.3,0.3,0.8,0.3,1.6c0,0.7-0.1,1.2-0.3,1.5
		c-0.2,0.3-0.6,0.4-1.1,0.4H2.3V54.2L2.3,54.2z M2.3,47.2v2.7h0.4c0.3,0,0.5-0.1,0.6-0.3c0.1-0.2,0.2-0.5,0.2-1
		c0-0.5-0.1-0.9-0.2-1.1c-0.1-0.2-0.3-0.3-0.6-0.3H2.3L2.3,47.2z"/>
	<path class="st0" d="M4.9,49v0.4c0.2-0.3,0.5-0.5,0.8-0.5c0.5,0,0.8,0.5,0.8,1.4v3.8H5.9v-3.7c0-0.4,0-0.7-0.1-0.8
		c-0.1-0.1-0.2-0.2-0.4-0.2c-0.4,0-0.6,0.4-0.6,1.2v3.5H4.4V49H4.9L4.9,49z"/>
	<path class="st0" d="M9.2,51.7H7.5c0,1.3,0.2,1.9,0.6,1.9c0.3,0,0.5-0.4,0.5-1.2h0.5c0,0.6-0.1,1-0.3,1.3c-0.2,0.3-0.4,0.5-0.7,0.5
		c-0.8,0-1.1-0.9-1.1-2.7c0-0.8,0.1-1.5,0.3-2c0.2-0.5,0.5-0.7,0.8-0.7c0.3,0,0.6,0.2,0.8,0.7c0.2,0.4,0.3,1,0.3,1.8L9.2,51.7
		L9.2,51.7z M8.7,51.2l0-0.2c0-0.4,0-0.8-0.2-1.1c-0.1-0.3-0.2-0.4-0.4-0.4c-0.4,0-0.6,0.5-0.6,1.6H8.7L8.7,51.2z"/>
	<path class="st0" d="M9.7,49h0.5v3.4c0,0.5,0,0.8,0.1,1c0.1,0.2,0.2,0.3,0.4,0.3c0.2,0,0.3-0.1,0.4-0.3c0.1-0.2,0.1-0.5,0.1-1V49
		h0.5v3.9c0,0.4-0.1,0.7-0.3,1c-0.2,0.2-0.4,0.4-0.8,0.4c-0.3,0-0.6-0.1-0.8-0.4c-0.2-0.2-0.3-0.6-0.3-1V49L9.7,49z"/>
	<path class="st0" d="M16.1,54.2h-0.5v-3.8c0-0.6-0.1-0.9-0.4-0.9c-0.2,0-0.4,0.1-0.5,0.3c-0.1,0.2-0.1,0.6-0.1,1.1v3.3h-0.5v-3.8
		c0-0.6-0.1-0.9-0.4-0.9c-0.2,0-0.4,0.1-0.5,0.3C13.1,50,13,50.4,13,51v3.2h-0.5V49H13v0.4c0.2-0.3,0.5-0.5,0.8-0.5
		c0.3,0,0.6,0.2,0.7,0.6c0.2-0.4,0.5-0.6,0.8-0.6c0.3,0,0.5,0.1,0.6,0.3c0.1,0.2,0.2,0.6,0.2,1.1V54.2L16.1,54.2z"/>
	<path class="st0" d="M17.9,48.9c0.7,0,1.1,0.9,1.1,2.7c0,1.8-0.4,2.7-1.1,2.7c-0.8,0-1.2-0.9-1.2-2.7
		C16.7,49.8,17.1,48.9,17.9,48.9L17.9,48.9z M17.9,49.5c-0.4,0-0.6,0.7-0.6,2.1c0,1.4,0.2,2.1,0.6,2.1c0.4,0,0.6-0.7,0.6-2.1
		C18.4,50.3,18.2,49.6,17.9,49.5L17.9,49.5z"/>
	<polygon class="st0" points="20,45.8 20,51.1 21,49 21.6,49 20.4,51.3 21.9,54.2 21.3,54.2 20,51.7 20,54.2 19.5,54.2 19.5,45.8 
		20,45.8 	"/>
	<path class="st0" d="M23,48.9c0.7,0,1.1,0.9,1.1,2.7c0,1.8-0.4,2.7-1.1,2.7c-0.8,0-1.2-0.9-1.2-2.7C21.9,49.8,22.3,48.9,23,48.9
		L23,48.9z M23,49.5c-0.4,0-0.6,0.7-0.6,2.1c0,1.4,0.2,2.1,0.6,2.1c0.4,0,0.6-0.7,0.6-2.1C23.6,50.3,23.4,49.6,23,49.5L23,49.5z"/>
	<polygon class="st0" points="25.2,45.8 25.2,51.1 26.2,49 26.8,49 25.6,51.3 27.1,54.2 26.4,54.2 25.2,51.7 25.2,54.2 24.7,54.2 
		24.7,45.8 25.2,45.8 	"/>
	<path class="st0" d="M28.2,48.9c0.7,0,1.1,0.9,1.1,2.7c0,1.8-0.4,2.7-1.1,2.7c-0.8,0-1.2-0.9-1.2-2.7
		C27.1,49.8,27.5,48.9,28.2,48.9L28.2,48.9z M28.2,49.5c-0.4,0-0.6,0.7-0.6,2.1c0,1.4,0.2,2.1,0.6,2.1c0.4,0,0.6-0.7,0.6-2.1
		C28.8,50.3,28.6,49.6,28.2,49.5L28.2,49.5z"/>
	<path class="st0" d="M31.8,49l-0.9,5.2h-0.5L29.5,49H30l0.5,3.1c0,0,0,0.1,0,0.1l0.1,0.4c0,0.1,0,0.3,0.1,0.5
		c0-0.3,0.1-0.7,0.1-1.1l0.5-3.1H31.8L31.8,49z"/>
	<path class="st0" d="M34.1,49v5.2h-0.5v-0.4c-0.2,0.3-0.4,0.5-0.7,0.5c-0.3,0-0.6-0.2-0.7-0.6c-0.1-0.4-0.2-1.1-0.2-2.2
		c0-0.9,0.1-1.5,0.2-2c0.2-0.4,0.4-0.6,0.8-0.6c0.2,0,0.4,0.1,0.6,0.4V49H34.1L34.1,49z M33.1,49.5c-0.2,0-0.4,0.2-0.4,0.5
		c-0.1,0.3-0.1,0.8-0.1,1.6c0,0.8,0,1.4,0.1,1.7c0.1,0.3,0.2,0.5,0.4,0.5c0.2,0,0.4-0.2,0.5-0.5c0.1-0.3,0.1-0.9,0.1-1.7
		c0-0.7,0-1.3-0.1-1.6C33.5,49.6,33.3,49.5,33.1,49.5L33.1,49.5z M33.6,46.7l0.4,0.5l-0.9,1.2l-0.3-0.3L33.6,46.7L33.6,46.7z"/>
	<path class="st0" d="M36.3,49h0.5v0.4c0.2-0.3,0.4-0.4,0.6-0.4c0.3,0,0.6,0.2,0.8,0.6c0.2,0.4,0.2,1.1,0.2,2c0,1-0.1,1.7-0.2,2.2
		c-0.1,0.4-0.4,0.6-0.7,0.6c-0.3,0-0.5-0.2-0.7-0.5v2.4h-0.5V49L36.3,49z M37.3,49.5c-0.2,0-0.4,0.2-0.4,0.5
		c-0.1,0.3-0.1,0.8-0.1,1.6c0,0.9,0,1.4,0.1,1.8c0.1,0.3,0.2,0.5,0.5,0.5c0.2,0,0.4-0.2,0.4-0.5c0.1-0.3,0.1-0.9,0.1-1.7
		c0-0.7,0-1.2-0.1-1.6C37.7,49.6,37.5,49.5,37.3,49.5L37.3,49.5z"/>
	<path class="st0" d="M40,48.9c0.7,0,1.1,0.9,1.1,2.7c0,1.8-0.4,2.7-1.1,2.7c-0.8,0-1.2-0.9-1.2-2.7C38.8,49.8,39.2,48.9,40,48.9
		L40,48.9z M40,49.5c-0.4,0-0.6,0.7-0.6,2.1c0,1.4,0.2,2.1,0.6,2.1c0.4,0,0.6-0.7,0.6-2.1C40.6,50.3,40.4,49.6,40,49.5L40,49.5z"/>
	<polygon class="st0" points="42.2,45.8 42.2,54.2 41.7,54.2 41.7,45.8 42.2,45.8 	"/>
	<path class="st0" d="M45,49l-1.4,7.1h-0.5l0.4-2l-0.9-5H43l0.5,2.9c0.1,0.5,0.1,0.9,0.2,1.3c0-0.1,0-0.3,0.1-0.6l0.1-0.4l0-0.2
		l0.5-3H45L45,49z"/>
	<path class="st0" d="M46.8,49.3v0.8c-0.2-0.4-0.4-0.5-0.7-0.5c-0.1,0-0.3,0.1-0.4,0.2c-0.1,0.1-0.1,0.3-0.1,0.5
		c0,0.2,0,0.3,0.1,0.5c0.1,0.2,0.2,0.3,0.4,0.6c0.3,0.3,0.5,0.6,0.6,0.8c0.1,0.2,0.1,0.5,0.1,0.7c0,0.4-0.1,0.8-0.3,1.1
		c-0.2,0.3-0.5,0.4-0.8,0.4c-0.2,0-0.5-0.1-0.7-0.4v-0.8c0.3,0.3,0.5,0.5,0.7,0.5c0.2,0,0.3-0.1,0.4-0.2c0.1-0.2,0.2-0.3,0.2-0.6
		c0-0.2,0-0.4-0.1-0.5c-0.1-0.1-0.2-0.3-0.5-0.6c-0.5-0.5-0.7-1-0.7-1.5c0-0.4,0.1-0.7,0.3-0.9c0.2-0.2,0.4-0.4,0.7-0.4
		C46.3,48.9,46.5,49,46.8,49.3L46.8,49.3z"/>
	<path class="st0" d="M49.3,49v5.2h-0.5v-0.4c-0.2,0.3-0.4,0.5-0.7,0.5c-0.3,0-0.6-0.2-0.7-0.6c-0.1-0.4-0.2-1.1-0.2-2.2
		c0-0.9,0.1-1.5,0.2-2c0.2-0.4,0.4-0.6,0.8-0.6c0.2,0,0.4,0.1,0.6,0.4V49H49.3L49.3,49z M48.3,49.5c-0.2,0-0.4,0.2-0.4,0.5
		c-0.1,0.3-0.1,0.8-0.1,1.6c0,0.8,0,1.4,0.1,1.7c0.1,0.3,0.2,0.5,0.4,0.5c0.2,0,0.4-0.2,0.5-0.5c0.1-0.3,0.1-0.9,0.1-1.7
		c0-0.7,0-1.3-0.1-1.6C48.7,49.6,48.5,49.5,48.3,49.5L48.3,49.5z"/>
	<path class="st0" d="M51.6,49.1v0.8c-0.2-0.2-0.3-0.4-0.5-0.4c-0.2,0-0.4,0.2-0.5,0.5c-0.1,0.4-0.2,0.9-0.2,1.5
		c0,0.6,0.1,1.1,0.2,1.5c0.1,0.4,0.3,0.5,0.5,0.5c0.2,0,0.3-0.2,0.5-0.5V54c-0.2,0.2-0.4,0.3-0.6,0.3c-0.3,0-0.6-0.2-0.8-0.7
		c-0.2-0.5-0.3-1.1-0.3-1.9c0-0.8,0.1-1.5,0.3-2c0.2-0.5,0.5-0.7,0.8-0.7C51.2,48.9,51.4,49,51.6,49.1L51.6,49.1z"/>
	<path class="st0" d="M52.5,45.8v3.6c0.2-0.3,0.5-0.5,0.8-0.5c0.3,0,0.5,0.1,0.6,0.3c0.1,0.2,0.2,0.6,0.2,1.1v3.8h-0.5v-3.7
		c0-0.4,0-0.7-0.1-0.8c-0.1-0.1-0.2-0.2-0.4-0.2c-0.4,0-0.6,0.4-0.6,1.2v3.5H52v-8.4H52.5L52.5,45.8z"/>
	<path class="st0" d="M56.8,49v5.2h-0.5v-0.4c-0.2,0.3-0.4,0.5-0.7,0.5c-0.3,0-0.6-0.2-0.7-0.6c-0.1-0.4-0.2-1.1-0.2-2.2
		c0-0.9,0.1-1.5,0.2-2c0.2-0.4,0.4-0.6,0.8-0.6c0.2,0,0.4,0.1,0.6,0.4V49H56.8L56.8,49z M55.8,49.5c-0.2,0-0.4,0.2-0.4,0.5
		c-0.1,0.3-0.1,0.8-0.1,1.6c0,0.8,0,1.4,0.1,1.7c0.1,0.3,0.2,0.5,0.4,0.5c0.2,0,0.4-0.2,0.5-0.5c0.1-0.3,0.1-0.9,0.1-1.7
		c0-0.7,0-1.3-0.1-1.6C56.1,49.6,56,49.5,55.8,49.5L55.8,49.5z"/>
	<path class="st0" d="M57.5,49H58v0.7c0.2-0.5,0.4-0.7,0.7-0.8v0.8c0,0-0.1,0-0.1,0c-0.1,0-0.2,0-0.3,0.2c-0.1,0.1-0.2,0.2-0.2,0.4
		c0,0.1-0.1,0.4-0.1,0.8v3.1h-0.5V49L57.5,49z"/>
	<path class="st0" d="M59.6,49v5.2h-0.5V49H59.6L59.6,49z M59.3,47c0.1,0,0.2,0,0.3,0.1c0.1,0.1,0.1,0.2,0.1,0.3
		c0,0.1,0,0.2-0.1,0.3c-0.1,0.1-0.2,0.1-0.3,0.1c-0.1,0-0.2,0-0.3-0.1c-0.1-0.1-0.1-0.2-0.1-0.3c0-0.1,0-0.3,0.1-0.3
		C59.1,47,59.2,47,59.3,47L59.3,47z"/>
	<path class="st0" d="M62.2,45.8v8.4h-0.5v-0.4c-0.2,0.3-0.4,0.5-0.7,0.5c-0.3,0-0.6-0.2-0.7-0.6c-0.1-0.4-0.2-1.1-0.2-2.2
		c0-0.9,0.1-1.5,0.2-2c0.2-0.4,0.4-0.6,0.8-0.6c0.2,0,0.4,0.1,0.6,0.4v-3.5H62.2L62.2,45.8z M61.2,49.5c-0.2,0-0.4,0.2-0.4,0.5
		c-0.1,0.3-0.1,0.8-0.1,1.6c0,0.8,0,1.4,0.1,1.7c0.1,0.3,0.2,0.5,0.4,0.5c0.2,0,0.4-0.2,0.5-0.5c0.1-0.3,0.1-0.9,0.1-1.8
		c0-0.8,0-1.3-0.1-1.6C61.6,49.6,61.4,49.5,61.2,49.5L61.2,49.5z"/>
	<path class="st0" d="M64,48.9c0.7,0,1.1,0.9,1.1,2.7c0,1.8-0.4,2.7-1.1,2.7c-0.8,0-1.2-0.9-1.2-2.7C62.8,49.8,63.2,48.9,64,48.9
		L64,48.9z M64,49.5c-0.4,0-0.6,0.7-0.6,2.1c0,1.4,0.2,2.1,0.6,2.1c0.4,0,0.6-0.7,0.6-2.1C64.5,50.3,64.4,49.6,64,49.5L64,49.5z"/>
	<path class="st0" d="M67.6,49l-0.9,5.2h-0.5L65.2,49h0.5l0.5,3.1c0,0,0,0.1,0,0.1l0.1,0.4c0,0.1,0,0.3,0.1,0.5
		c0-0.3,0.1-0.7,0.1-1.1L67,49H67.6L67.6,49z"/>
	<path class="st0" d="M69.9,49v5.2h-0.5v-0.4c-0.2,0.3-0.4,0.5-0.7,0.5c-0.3,0-0.6-0.2-0.7-0.6c-0.1-0.4-0.2-1.1-0.2-2.2
		c0-0.9,0.1-1.5,0.2-2c0.2-0.4,0.4-0.6,0.8-0.6c0.2,0,0.4,0.1,0.6,0.4V49H69.9L69.9,49z M68.9,49.5c-0.2,0-0.4,0.2-0.4,0.5
		c-0.1,0.3-0.1,0.8-0.1,1.6c0,0.8,0,1.4,0.1,1.7c0.1,0.3,0.2,0.5,0.4,0.5c0.2,0,0.4-0.2,0.5-0.5c0.1-0.3,0.1-0.9,0.1-1.7
		c0-0.7,0-1.3-0.1-1.6C69.2,49.6,69.1,49.5,68.9,49.5L68.9,49.5z M69.3,46.7l0.4,0.5l-0.9,1.2l-0.3-0.3L69.3,46.7L69.3,46.7z"/>
	<polygon class="st0" points="72.5,45.8 72.5,51.1 73.5,49 74.1,49 73,51.3 74.4,54.2 73.8,54.2 72.5,51.7 72.5,54.2 72,54.2 
		72,45.8 72.5,45.8 	"/>
	<path class="st0" d="M75.6,48.9c0.7,0,1.1,0.9,1.1,2.7c0,1.8-0.4,2.7-1.1,2.7c-0.8,0-1.2-0.9-1.2-2.7
		C74.4,49.8,74.8,48.9,75.6,48.9L75.6,48.9z M75.5,49.5c-0.4,0-0.6,0.7-0.6,2.1c0,1.4,0.2,2.1,0.6,2.1c0.4,0,0.6-0.7,0.6-2.1
		C76.1,50.3,75.9,49.6,75.5,49.5L75.5,49.5z"/>
	<path class="st0" d="M77.7,49v0.4c0.2-0.3,0.5-0.5,0.8-0.5c0.5,0,0.8,0.5,0.8,1.4v3.8h-0.5v-3.7c0-0.4,0-0.7-0.1-0.8
		c-0.1-0.1-0.2-0.2-0.4-0.2c-0.4,0-0.6,0.4-0.6,1.2v3.5h-0.5V49H77.7L77.7,49z"/>
	<path class="st0" d="M80.5,49v7.2H80V49H80.5L80.5,49z M80.3,47c0.1,0,0.2,0,0.3,0.1c0.1,0.1,0.1,0.2,0.1,0.3c0,0.1,0,0.2-0.1,0.3
		c-0.1,0.1-0.2,0.1-0.3,0.1c-0.1,0-0.2,0-0.3-0.1c-0.1-0.1-0.1-0.2-0.1-0.3c0-0.1,0-0.3,0.1-0.3C80.1,47,80.2,47,80.3,47L80.3,47z"
		/>
	<path class="st0" d="M81.2,49h0.5v3.4c0,0.5,0,0.8,0.1,1c0.1,0.2,0.2,0.3,0.4,0.3c0.2,0,0.3-0.1,0.4-0.3c0.1-0.2,0.1-0.5,0.1-1V49
		h0.5v3.9c0,0.4-0.1,0.7-0.3,1c-0.2,0.2-0.4,0.4-0.8,0.4c-0.3,0-0.6-0.1-0.8-0.4c-0.2-0.2-0.3-0.6-0.3-1V49L81.2,49z"/>
	<path class="st0" d="M86,49v5.5c0,0.6-0.1,1.1-0.2,1.3c-0.2,0.3-0.4,0.5-0.8,0.5c-0.7,0-1-0.5-1-1.4c0,0,0-0.1,0-0.2h0.5
		c0,0.4,0,0.6,0.1,0.8c0.1,0.2,0.2,0.2,0.4,0.2c0.2,0,0.3-0.1,0.4-0.2c0.1-0.1,0.1-0.4,0.1-0.8l0-0.4v-0.4c-0.2,0.2-0.4,0.4-0.6,0.4
		c-0.3,0-0.6-0.2-0.8-0.6c-0.2-0.4-0.2-1.1-0.2-2c0-1.7,0.3-2.6,1-2.6c0.3,0,0.5,0.1,0.7,0.4V49H86L86,49z M85,49.5
		c-0.2,0-0.3,0.2-0.4,0.5c-0.1,0.3-0.1,0.9-0.1,1.6c0,0.7,0,1.2,0.1,1.6c0.1,0.3,0.3,0.5,0.5,0.5c0.2,0,0.4-0.2,0.4-0.5
		c0.1-0.3,0.1-0.8,0.1-1.6s0-1.3-0.1-1.6C85.4,49.6,85.2,49.5,85,49.5L85,49.5z"/>
	<path class="st0" d="M87.8,48.9c0.7,0,1.1,0.9,1.1,2.7c0,1.8-0.4,2.7-1.1,2.7c-0.8,0-1.2-0.9-1.2-2.7C86.6,49.8,87,48.9,87.8,48.9
		L87.8,48.9z M87.8,49.5c-0.4,0-0.6,0.7-0.6,2.1c0,1.4,0.2,2.1,0.6,2.1c0.4,0,0.6-0.7,0.6-2.1C88.4,50.3,88.2,49.6,87.8,49.5
		L87.8,49.5z"/>
	<path class="st0" d="M91.4,49l-0.9,5.2H90L89,49h0.5l0.5,3.1c0,0,0,0.1,0,0.1l0.1,0.4c0,0.1,0,0.3,0.1,0.5c0-0.3,0.1-0.7,0.1-1.1
		l0.5-3.1H91.4L91.4,49z"/>
	<path class="st0" d="M93.7,49v5.2h-0.5v-0.4c-0.2,0.3-0.4,0.5-0.7,0.5c-0.3,0-0.6-0.2-0.7-0.6c-0.1-0.4-0.2-1.1-0.2-2.2
		c0-0.9,0.1-1.5,0.2-2c0.2-0.4,0.4-0.6,0.8-0.6c0.2,0,0.4,0.1,0.6,0.4V49H93.7L93.7,49z M92.7,49.5c-0.2,0-0.4,0.2-0.4,0.5
		c-0.1,0.3-0.1,0.8-0.1,1.6c0,0.8,0,1.4,0.1,1.7c0.1,0.3,0.2,0.5,0.4,0.5c0.2,0,0.4-0.2,0.5-0.5c0.1-0.3,0.1-0.9,0.1-1.7
		c0-0.7,0-1.3-0.1-1.6C93,49.6,92.9,49.5,92.7,49.5L92.7,49.5z"/>
	<path class="st0" d="M94.9,49v0.4c0.2-0.3,0.5-0.5,0.8-0.5c0.5,0,0.8,0.5,0.8,1.4v3.8h-0.5v-3.7c0-0.4,0-0.7-0.1-0.8
		c-0.1-0.1-0.2-0.2-0.4-0.2c-0.4,0-0.6,0.4-0.6,1.2v3.5h-0.5V49H94.9L94.9,49z"/>
	<path class="st0" d="M99.2,49v5.2h-0.5v-0.4c-0.2,0.3-0.4,0.5-0.7,0.5c-0.3,0-0.6-0.2-0.7-0.6c-0.1-0.4-0.2-1.1-0.2-2.2
		c0-0.9,0.1-1.5,0.2-2c0.2-0.4,0.4-0.6,0.8-0.6c0.2,0,0.4,0.1,0.6,0.4V49H99.2L99.2,49z M98.1,49.5c-0.2,0-0.4,0.2-0.4,0.5
		c-0.1,0.3-0.1,0.8-0.1,1.6c0,0.8,0,1.4,0.1,1.7c0.1,0.3,0.2,0.5,0.4,0.5c0.2,0,0.4-0.2,0.5-0.5c0.1-0.3,0.1-0.9,0.1-1.7
		c0-0.7,0-1.3-0.1-1.6C98.5,49.6,98.3,49.5,98.1,49.5L98.1,49.5z M98.6,46.7l0.4,0.5l-0.9,1.2l-0.3-0.3L98.6,46.7L98.6,46.7z"/>
	<path class="st0" d="M103.3,49l-0.9,5.2h-0.5L101,49h0.5l0.5,3.1c0,0,0,0.1,0,0.1l0.1,0.4c0,0.1,0,0.3,0.1,0.5
		c0-0.3,0.1-0.7,0.1-1.1l0.5-3.1H103.3L103.3,49z"/>
	<path class="st0" d="M105.6,49v5.2h-0.5v-0.4c-0.2,0.3-0.4,0.5-0.7,0.5c-0.3,0-0.6-0.2-0.7-0.6c-0.1-0.4-0.2-1.1-0.2-2.2
		c0-0.9,0.1-1.5,0.2-2c0.2-0.4,0.4-0.6,0.8-0.6c0.2,0,0.4,0.1,0.6,0.4V49H105.6L105.6,49z M104.6,49.5c-0.2,0-0.4,0.2-0.4,0.5
		c-0.1,0.3-0.1,0.8-0.1,1.6c0,0.8,0,1.4,0.1,1.7c0.1,0.3,0.2,0.5,0.4,0.5c0.2,0,0.4-0.2,0.5-0.5c0.1-0.3,0.1-0.9,0.1-1.7
		c0-0.7,0-1.3-0.1-1.6C104.9,49.6,104.8,49.5,104.6,49.5L104.6,49.5z"/>
	<polygon class="st0" points="106.8,45.8 106.8,51.1 107.8,49 108.3,49 107.2,51.3 108.7,54.2 108,54.2 106.8,51.7 106.8,54.2 
		106.3,54.2 106.3,45.8 106.8,45.8 	"/>
	<path class="st0" d="M110.4,49.1v0.8c-0.2-0.2-0.3-0.4-0.5-0.4c-0.2,0-0.4,0.2-0.5,0.5c-0.1,0.4-0.2,0.9-0.2,1.5
		c0,0.6,0.1,1.1,0.2,1.5c0.1,0.4,0.3,0.5,0.5,0.5c0.2,0,0.3-0.2,0.5-0.5V54c-0.2,0.2-0.4,0.3-0.6,0.3c-0.3,0-0.6-0.2-0.8-0.7
		c-0.2-0.5-0.3-1.1-0.3-1.9c0-0.8,0.1-1.5,0.3-2c0.2-0.5,0.5-0.7,0.8-0.7C110.1,48.9,110.3,49,110.4,49.1L110.4,49.1z"/>
	<path class="st0" d="M111.4,49v5.2h-0.5V49H111.4L111.4,49z M111.5,46.7l0.4,0.5l-0.9,1.2l-0.3-0.3L111.5,46.7L111.5,46.7z"/>
	<path class="st0" d="M112.6,49v0.4c0.2-0.3,0.5-0.5,0.8-0.5c0.5,0,0.8,0.5,0.8,1.4v3.8h-0.5v-3.7c0-0.4,0-0.7-0.1-0.8
		c-0.1-0.1-0.2-0.2-0.4-0.2c-0.4,0-0.6,0.4-0.6,1.2v3.5h-0.5V49H112.6L112.6,49z"/>
	<path class="st0" d="M116.9,49v5.2h-0.5v-0.4c-0.2,0.3-0.4,0.5-0.7,0.5c-0.3,0-0.6-0.2-0.7-0.6c-0.1-0.4-0.2-1.1-0.2-2.2
		c0-0.9,0.1-1.5,0.2-2c0.2-0.4,0.4-0.6,0.8-0.6c0.2,0,0.4,0.1,0.6,0.4V49H116.9L116.9,49z M115.8,49.5c-0.2,0-0.4,0.2-0.4,0.5
		c-0.1,0.3-0.1,0.8-0.1,1.6c0,0.8,0,1.4,0.1,1.7c0.1,0.3,0.2,0.5,0.4,0.5c0.2,0,0.4-0.2,0.5-0.5c0.1-0.3,0.1-0.9,0.1-1.7
		c0-0.7,0-1.3-0.1-1.6C116.2,49.6,116.1,49.5,115.8,49.5L115.8,49.5z"/>
	<path class="st0" d="M120.5,46l-0.1,0.2c-0.6,1.6-0.9,3.2-0.9,4.8c0,1.6,0.3,3.2,0.9,4.8l0.1,0.2l-0.4,0.3
		c-0.3-0.7-0.6-1.6-0.8-2.5c-0.2-0.9-0.3-1.8-0.3-2.7c0-0.9,0.1-1.8,0.3-2.7c0.2-0.9,0.4-1.8,0.8-2.5L120.5,46L120.5,46z"/>
	<polygon class="st0" points="122.7,46.6 122.7,54.2 122.1,54.2 122.1,47.2 121.4,47.2 121.5,46.6 122.7,46.6 	"/>
	<path class="st0" d="M124.2,48.4h-0.5c0-0.6,0.1-1.1,0.3-1.4c0.2-0.3,0.5-0.5,0.8-0.5c0.4,0,0.7,0.2,0.9,0.5
		c0.2,0.3,0.3,0.7,0.3,1.3c0,0.9-0.2,1.5-0.7,1.8c0.5,0.3,0.7,1,0.7,2.1c0,1.5-0.4,2.2-1.2,2.2c-0.8,0-1.2-0.6-1.2-1.9l0-0.3h0.5
		c0,0.6,0.1,0.9,0.2,1.2c0.1,0.2,0.3,0.3,0.5,0.3c0.5,0,0.7-0.5,0.7-1.6c0-1.1-0.3-1.7-1-1.7h-0.3v-0.6h0.2c0.3,0,0.6-0.1,0.7-0.3
		c0.1-0.2,0.2-0.6,0.2-1.1c0-0.8-0.2-1.2-0.6-1.2c-0.2,0-0.4,0.1-0.5,0.3C124.3,47.6,124.2,47.9,124.2,48.4L124.2,48.4z"/>
	<path class="st0" d="M128.7,49l-0.9,5.2h-0.5l-0.9-5.2h0.5l0.5,3.1c0,0,0,0.1,0,0.1l0.1,0.4c0,0.1,0,0.3,0.1,0.5
		c0-0.3,0.1-0.7,0.1-1.1l0.5-3.1H128.7L128.7,49z"/>
	<path class="st0" d="M131,49v5.2h-0.5v-0.4c-0.2,0.3-0.4,0.5-0.7,0.5c-0.3,0-0.6-0.2-0.7-0.6c-0.1-0.4-0.2-1.1-0.2-2.2
		c0-0.9,0.1-1.5,0.2-2c0.2-0.4,0.4-0.6,0.8-0.6c0.2,0,0.4,0.1,0.6,0.4V49H131L131,49z M130,49.5c-0.2,0-0.4,0.2-0.4,0.5
		c-0.1,0.3-0.1,0.8-0.1,1.6c0,0.8,0,1.4,0.1,1.7c0.1,0.3,0.2,0.5,0.4,0.5c0.2,0,0.4-0.2,0.5-0.5c0.1-0.3,0.1-0.9,0.1-1.7
		c0-0.7,0-1.3-0.1-1.6C130.3,49.6,130.2,49.5,130,49.5L130,49.5z"/>
	<polygon class="st0" points="132.2,45.8 132.2,54.2 131.7,54.2 131.7,45.8 132.2,45.8 	"/>
	<path class="st0" d="M135,51.7h-1.7c0,1.3,0.2,1.9,0.6,1.9c0.3,0,0.5-0.4,0.5-1.2h0.5c0,0.6-0.1,1-0.3,1.3
		c-0.2,0.3-0.4,0.5-0.7,0.5c-0.8,0-1.1-0.9-1.1-2.7c0-0.8,0.1-1.5,0.3-2c0.2-0.5,0.5-0.7,0.8-0.7c0.3,0,0.6,0.2,0.8,0.7
		c0.2,0.4,0.3,1,0.3,1.8L135,51.7L135,51.7z M134.5,51.2l0-0.2c0-0.4,0-0.8-0.2-1.1c-0.1-0.3-0.2-0.4-0.4-0.4
		c-0.4,0-0.6,0.5-0.6,1.6H134.5L134.5,51.2z"/>
	<path class="st0" d="M136,49v0.4c0.2-0.3,0.5-0.5,0.8-0.5c0.5,0,0.8,0.5,0.8,1.4v3.8h-0.5v-3.7c0-0.4,0-0.7-0.1-0.8
		c-0.1-0.1-0.2-0.2-0.4-0.2c-0.4,0-0.6,0.4-0.6,1.2v3.5h-0.5V49H136L136,49z"/>
	<polygon class="st0" points="139.6,49 139.6,49.6 138.9,49.6 138.9,54.2 138.4,54.2 138.4,49.6 138,49.6 138,49 138.4,49 
		138.4,47.6 138.9,47.6 138.9,49 139.6,49 	"/>
	<path class="st0" d="M140.4,49v0.4c0.2-0.3,0.5-0.5,0.8-0.5c0.5,0,0.8,0.5,0.8,1.4v3.8h-0.5v-3.7c0-0.4,0-0.7-0.1-0.8
		c-0.1-0.1-0.2-0.2-0.4-0.2c-0.4,0-0.6,0.4-0.6,1.2v3.5h-0.5V49H140.4L140.4,49z"/>
	<path class="st0" d="M143.1,49v5.2h-0.5V49H143.1L143.1,49z M143.3,46.7l0.4,0.5l-0.9,1.2l-0.3-0.3L143.3,46.7L143.3,46.7z"/>
	<polygon class="st0" points="144.6,53.6 143.8,55.8 143.5,55.6 144.1,53.2 144.6,53.6 	"/>
	<path class="st0" d="M148.7,49v5.2h-0.5v-0.4c-0.2,0.3-0.4,0.5-0.7,0.5c-0.3,0-0.6-0.2-0.7-0.6c-0.1-0.4-0.2-1.1-0.2-2.2
		c0-0.9,0.1-1.5,0.2-2c0.2-0.4,0.4-0.6,0.8-0.6c0.2,0,0.4,0.1,0.6,0.4V49H148.7L148.7,49z M147.7,49.5c-0.2,0-0.4,0.2-0.4,0.5
		c-0.1,0.3-0.1,0.8-0.1,1.6c0,0.8,0,1.4,0.1,1.7c0.1,0.3,0.2,0.5,0.4,0.5c0.2,0,0.4-0.2,0.5-0.5c0.1-0.3,0.1-0.9,0.1-1.7
		c0-0.7,0-1.3-0.1-1.6C148,49.6,147.9,49.5,147.7,49.5L147.7,49.5z"/>
	<path class="st0" d="M151.4,45.8v8.4h-0.5v-0.4c-0.2,0.3-0.4,0.5-0.7,0.5c-0.3,0-0.6-0.2-0.7-0.6c-0.1-0.4-0.2-1.1-0.2-2.2
		c0-0.9,0.1-1.5,0.2-2c0.2-0.4,0.4-0.6,0.8-0.6c0.2,0,0.4,0.1,0.6,0.4v-3.5H151.4L151.4,45.8z M150.4,49.5c-0.2,0-0.4,0.2-0.4,0.5
		c-0.1,0.3-0.1,0.8-0.1,1.6c0,0.8,0,1.4,0.1,1.7c0.1,0.3,0.2,0.5,0.4,0.5c0.2,0,0.4-0.2,0.5-0.5c0.1-0.3,0.1-0.9,0.1-1.8
		c0-0.8,0-1.3-0.1-1.6C150.7,49.6,150.6,49.5,150.4,49.5L150.4,49.5z"/>
	<path class="st0" d="M153.6,49.3v0.8c-0.2-0.4-0.4-0.5-0.7-0.5c-0.1,0-0.3,0.1-0.4,0.2c-0.1,0.1-0.1,0.3-0.1,0.5
		c0,0.2,0,0.3,0.1,0.5c0.1,0.2,0.2,0.3,0.4,0.6c0.3,0.3,0.5,0.6,0.6,0.8c0.1,0.2,0.1,0.5,0.1,0.7c0,0.4-0.1,0.8-0.3,1.1
		c-0.2,0.3-0.5,0.4-0.8,0.4c-0.2,0-0.5-0.1-0.7-0.4v-0.8c0.3,0.3,0.5,0.5,0.7,0.5c0.2,0,0.3-0.1,0.4-0.2c0.1-0.2,0.2-0.3,0.2-0.6
		c0-0.2,0-0.4-0.1-0.5c-0.1-0.1-0.2-0.3-0.5-0.6c-0.5-0.5-0.7-1-0.7-1.5c0-0.4,0.1-0.7,0.3-0.9c0.2-0.2,0.4-0.4,0.7-0.4
		C153.1,48.9,153.3,49,153.6,49.3L153.6,49.3z"/>
	<path class="st0" d="M155.1,48.9c0.7,0,1.1,0.9,1.1,2.7c0,1.8-0.4,2.7-1.1,2.7c-0.8,0-1.2-0.9-1.2-2.7
		C154,49.8,154.4,48.9,155.1,48.9L155.1,48.9z M155.1,49.5c-0.4,0-0.6,0.7-0.6,2.1c0,1.4,0.2,2.1,0.6,2.1c0.4,0,0.6-0.7,0.6-2.1
		C155.7,50.3,155.5,49.6,155.1,49.5L155.1,49.5z"/>
	<path class="st0" d="M156.8,49h0.5v0.7c0.2-0.5,0.4-0.7,0.7-0.8v0.8c0,0-0.1,0-0.1,0c-0.1,0-0.2,0-0.3,0.2
		c-0.1,0.1-0.2,0.2-0.2,0.4c0,0.1-0.1,0.4-0.1,0.8v3.1h-0.5V49L156.8,49z"/>
	<path class="st0" d="M158.4,45.8h0.5v3.5c0.2-0.3,0.4-0.4,0.6-0.4c0.3,0,0.6,0.2,0.8,0.6c0.2,0.4,0.2,1.1,0.2,2
		c0,1-0.1,1.7-0.2,2.2c-0.1,0.4-0.4,0.6-0.7,0.6c-0.3,0-0.5-0.2-0.7-0.5v0.4h-0.5V45.8L158.4,45.8z M159.4,49.5
		c-0.2,0-0.4,0.2-0.4,0.5c-0.1,0.3-0.1,0.8-0.1,1.6c0,0.9,0,1.4,0.1,1.8c0.1,0.3,0.2,0.5,0.5,0.5c0.2,0,0.4-0.2,0.4-0.5
		c0.1-0.3,0.1-0.9,0.1-1.7c0-0.7,0-1.2-0.1-1.6C159.7,49.6,159.6,49.5,159.4,49.5L159.4,49.5z"/>
	<path class="st0" d="M162.1,48.9c0.7,0,1.1,0.9,1.1,2.7c0,1.8-0.4,2.7-1.1,2.7c-0.8,0-1.2-0.9-1.2-2.7
		C160.9,49.8,161.3,48.9,162.1,48.9L162.1,48.9z M162,49.5c-0.4,0-0.6,0.7-0.6,2.1c0,1.4,0.2,2.1,0.6,2.1c0.4,0,0.6-0.7,0.6-2.1
		C162.6,50.3,162.4,49.6,162,49.5L162,49.5z"/>
	<path class="st0" d="M165.6,49l-0.9,5.2h-0.5l-0.9-5.2h0.5l0.5,3.1c0,0,0,0.1,0,0.1l0.1,0.4c0,0.1,0,0.3,0.1,0.5
		c0-0.3,0.1-0.7,0.1-1.1l0.5-3.1H165.6L165.6,49z"/>
	<path class="st0" d="M168,49v5.2h-0.5v-0.4c-0.2,0.3-0.4,0.5-0.7,0.5c-0.3,0-0.6-0.2-0.7-0.6c-0.1-0.4-0.2-1.1-0.2-2.2
		c0-0.9,0.1-1.5,0.2-2c0.2-0.4,0.4-0.6,0.8-0.6c0.2,0,0.4,0.1,0.6,0.4V49H168L168,49z M166.9,49.5c-0.2,0-0.4,0.2-0.4,0.5
		c-0.1,0.3-0.1,0.8-0.1,1.6c0,0.8,0,1.4,0.1,1.7c0.1,0.3,0.2,0.5,0.4,0.5c0.2,0,0.4-0.2,0.5-0.5c0.1-0.3,0.1-0.9,0.1-1.7
		c0-0.7,0-1.3-0.1-1.6C167.3,49.6,167.2,49.5,166.9,49.5L166.9,49.5z"/>
	<path class="st0" d="M169.2,49v0.4c0.2-0.3,0.5-0.5,0.8-0.5c0.5,0,0.8,0.5,0.8,1.4v3.8h-0.5v-3.7c0-0.4,0-0.7-0.1-0.8
		c-0.1-0.1-0.2-0.2-0.4-0.2c-0.4,0-0.6,0.4-0.6,1.2v3.5h-0.5V49H169.2L169.2,49z"/>
	<path class="st0" d="M173.4,49v5.2h-0.5v-0.4c-0.2,0.3-0.4,0.5-0.7,0.5c-0.3,0-0.6-0.2-0.7-0.6c-0.1-0.4-0.2-1.1-0.2-2.2
		c0-0.9,0.1-1.5,0.2-2c0.2-0.4,0.4-0.6,0.8-0.6c0.2,0,0.4,0.1,0.6,0.4V49H173.4L173.4,49z M172.4,49.5c-0.2,0-0.4,0.2-0.4,0.5
		c-0.1,0.3-0.1,0.8-0.1,1.6c0,0.8,0,1.4,0.1,1.7c0.1,0.3,0.2,0.5,0.4,0.5c0.2,0,0.4-0.2,0.5-0.5c0.1-0.3,0.1-0.9,0.1-1.7
		c0-0.7,0-1.3-0.1-1.6C172.8,49.6,172.6,49.5,172.4,49.5L172.4,49.5z M172.9,46.7l0.4,0.5l-0.9,1.2l-0.3-0.3L172.9,46.7L172.9,46.7z
		"/>
	<path class="st0" d="M174.1,56l0.1-0.2c0.6-1.6,0.9-3.2,0.9-4.8c0-1.6-0.3-3.2-0.9-4.8l-0.1-0.2l0.4-0.3c0.3,0.7,0.6,1.6,0.8,2.5
		c0.2,0.9,0.3,1.9,0.3,2.7c0,0.9-0.1,1.8-0.3,2.7c-0.2,0.9-0.4,1.8-0.8,2.5L174.1,56L174.1,56z"/>
</g>
</svg>
