{
  "IcoMoonType": "selection",
  "icons": [
    {
      "icon": {
        "paths": [
          "M810.666 213.334v597.332h-597.332v-597.332h597.332zM810.666 128h-597.332c-46.938 0-85.334 38.396-85.334 85.334v597.332c0 46.938 38.396 85.334 85.334 85.334h597.332c46.938 0 85.334-38.396 85.334-85.334v-597.332c0-46.938-38.396-85.334-85.334-85.334v0z"
        ],
        "attrs": [
          {}
        ],
        "isMulticolor": false,
        "isMulticolor2": false,
        "grid": 0,
        "tags": [
          "checkbox-blank"
        ]
      },
      "attrs": [
        {}
      ],
      "properties": {
        "order": 30,
        "id": 9,
        "name": "checkbox-blank",
        "prevSize": 32,
        "code": 48
      },
      "setIdx": 1,
      "setId": 0,
      "iconIdx": 0
    },
    {
      "icon": {
        "paths": [
          "M810.666 128h-597.332c-46.938 0-85.334 38.396-85.334 85.334v597.332c0 46.938 38.396 85.334 85.334 85.334h597.332c46.938 0 85.334-38.396 85.334-85.334v-597.332c0-46.938-38.396-85.334-85.334-85.334zM426.666 725.334l-213.332-213.334 59.728-59.728 153.604 153.604 324.272-324.272 59.728 59.73-384 384z"
        ],
        "attrs": [
          {}
        ],
        "isMulticolor": false,
        "isMulticolor2": false,
        "grid": 0,
        "tags": [
          "checkbox"
        ]
      },
      "attrs": [
        {}
      ],
      "properties": {
        "order": 31,
        "id": 10,
        "name": "checkbox",
        "prevSize": 32,
        "code": 49
      },
      "setIdx": 1,
      "setId": 0,
      "iconIdx": 1
    },
    {
      "icon": {
        "paths": [
          "M512 96c-228.798 0-416 187.202-416 416s187.202 416 416 416 416-187.202 416-416-187.202-416-416-416zM512 844.798c-183.036 0-332.798-149.764-332.798-332.798s149.762-332.8 332.798-332.8 332.8 149.764 332.8 332.8-149.764 332.798-332.8 332.798z"
        ],
        "attrs": [
          {}
        ],
        "isMulticolor": false,
        "isMulticolor2": false,
        "grid": 0,
        "tags": [
          "radio-blank"
        ]
      },
      "attrs": [
        {}
      ],
      "properties": {
        "order": 32,
        "id": 8,
        "name": "radio",
        "prevSize": 32,
        "code": 50
      },
      "setIdx": 1,
      "setId": 0,
      "iconIdx": 2
    },
    {
      "icon": {
        "paths": [
          "M512 304c-114.4 0-208 93.6-208 208s93.6 208 208 208 208-93.6 208-208-93.6-208-208-208zM512 96c-228.798 0-416 187.202-416 416s187.202 416 416 416 416-187.202 416-416-187.202-416-416-416zM512 844.8c-183.036 0-332.8-149.766-332.8-332.8s149.764-332.8 332.8-332.8 332.8 149.764 332.8 332.8-149.764 332.8-332.8 332.8z"
        ],
        "attrs": [
          {}
        ],
        "isMulticolor": false,
        "isMulticolor2": false,
        "grid": 0,
        "tags": [
          "radio"
        ]
      },
      "attrs": [
        {}
      ],
      "properties": {
        "order": 33,
        "id": 7,
        "name": "radio2",
        "prevSize": 32,
        "code": 51
      },
      "setIdx": 1,
      "setId": 0,
      "iconIdx": 3
    },
    {
      "icon": {
        "paths": [
          "M296.67 911.944c-1.249-0.528-2.464-1.157-3.746-1.546-4.812-1.455-7.473-4.755-8.088-9.634-0.328-2.464-0.378-4.961-0.378-7.435-0.028-47.45-0.028-94.907-0.028-142.365 0-35.045 0-70.066 0.028-105.1 0-1.827-0.264-3.712 0.596-5.648 0.678-0.128 1.371-0.332 2.084-0.389 0.985-0.078 1.993-0.034 2.978-0.034 25.214 0 50.437 0 75.656 0 1.604 0 3.208 0.078 4.975 0.128 0.264 0.951 0.596 1.753 0.653 2.57 0.115 1.604 0.078 3.226 0.078 4.846 0 57.389 0 114.779 0.028 172.185 0 1.959 0.115 3.929 0.178 6.037 0.917 0.206 1.604 0.447 2.315 0.48 1.364 0.078 2.738 0.058 4.101 0.058 209.685 0 419.388 0 629.077 0 2.077 0 4.193 0.264 6.335-0.48 0.128-0.836 0.328-1.546 0.332-2.27 0.058-1.364 0.028-2.738 0.028-4.101 0-62.608 0-125.215 0-187.823 0-1.729 0-3.448 0-5.35 1.009-0.278 1.787-0.596 2.613-0.711 0.86-0.115 1.729-0.058 2.613-0.058 25.593 0 51.193 0 76.769 0.028 1.57 0 3.242-0.378 4.925 0.893 0.028 1.431 0.078 3.035 0.078 4.625 0 72.919 0 145.847 0 218.766 0 15.397 0.028 30.807-0.028 46.202 0 2.084-0.206 4.226-0.619 6.267-0.871 4.25-3.54 6.967-7.699 8.266-1.421 0.447-2.77 1.042-4.159 1.58-263.902 0.028-527.793 0.028-791.684 0.028z",
          "M576.266 169.899c1.121-0.149 1.695-0.298 2.291-0.298 76.526-0.028 153.042-0.028 229.764-0.028 0.278 0.951 0.678 1.729 0.744 2.531 0.128 1.364 0.091 2.72 0.091 4.101 0 21.377-0.034 42.749 0.034 64.12 0.028 3.837 0.24 7.699 0.778 11.502 1.249 8.798 4.937 16.617 10.172 23.725 3.929 5.326 8.616 9.956 13.769 14.091 14.162 11.353 30.141 18.709 48.104 21.343 22.263 3.266 43.579 0.389 63.386-10.871 7.814-4.433 15.018-9.715 21.357-16.108 6.474-6.524 11.536-13.962 14.653-22.649 2.32-6.508 3.266-13.231 3.276-20.128 0.028-22.121 0-44.232 0.028-66.354 0-1.58-0.178-3.208 0.389-4.961 0.728-0.115 1.421-0.278 2.127-0.332 0.744-0.058 1.489-0.028 2.233-0.028 31.8 0 63.616 0 95.413 0 2.47 0 4.937-0.034 7.377 0.687 4.169 1.271 6.839 3.895 7.881 8.116 0.355 1.431 0.528 2.926 0.653 4.399 0.115 1.364 0.034 2.738 0.034 4.101 0 124.86 0 249.719-0.028 374.579 0 1.827 0.24 3.689-0.298 5.568-1.398 0.578-2.77 0.389-4.101 0.389-8.066 0.028-16.167 0.028-24.229 0.028-17.766 0-35.525 0-53.305 0-1.477 0-2.944-0.058-4.582-0.091-0.178-0.893-0.389-1.58-0.428-2.291-0.078-1.364-0.034-2.738-0.034-4.101 0-62.127 0-124.243-0.028-186.367 0-1.719 0.264-3.476-0.428-5.293-0.744-0.128-1.431-0.332-2.142-0.378-1.221-0.058-2.47-0.034-3.719-0.034-209.968 0-419.934 0-629.893 0-1.844 0-3.712-0.149-5.682 0.264-0.178 0.951-0.389 1.777-0.428 2.613-0.078 1.604-0.034 3.226-0.034 4.846 0 56.777 0 113.564-0.028 170.341 0 1.959 0.264 3.953-0.413 5.614-0.332 0.278-0.428 0.378-0.528 0.428-0.115 0.058-0.228 0.091-0.355 0.091-1.121 0.034-2.233 0.115-3.357 0.115-26.96-0.028-53.924-0.034-80.873-0.078-0.228 0-0.471-0.149-0.951-0.328-0.178-0.678-0.447-1.477-0.528-2.291-0.115-1.221-0.058-2.47-0.058-3.719 0-120.014 0-240.028 0.028-360.041 0-2.108 0.058-4.226 0.298-6.324 0.893-7.923 6.124-10.081 10.921-10.758 1.34-0.183 2.72-0.128 4.101-0.128 32.168 0 64.36 0 96.529 0 1.221 0 2.464 0.078 3.769 0.091 0.24 0.893 0.538 1.58 0.619 2.291 0.091 1.121 0.058 2.233 0.058 3.357 0 22.5 0.034 44.977 0 67.482-0.028 12.913 4.119 24.378 11.97 34.541 1.662 2.166 3.448 4.25 5.368 6.186 12.362 12.429 27.003 20.954 43.948 25.461 9.915 2.646 20.037 3.426 30.266 3.127 23.932-0.678 44.791-9.022 62.679-24.861 3.819-3.391 7.228-7.161 10.254-11.296 7.267-9.956 10.883-21.103 11.032-33.399 0.034-2.853 0.028-5.718 0.028-8.566 0-19.624 0-39.245 0-58.895 0-1.57 0-3.184 0-5.144z",
          "M501.697 467.986c0.091 2.027 0.24 3.631 0.24 5.235 0.028 10.94 0 21.857 0.028 32.806 0 1.455-0.206 2.978 0.562 4.475 0.728 0.115 1.455 0.328 2.166 0.332 1.627 0.058 3.226 0.034 4.846 0.034 127.208 0 254.416 0 381.648 0 1.977 0 3.953 0 6.124 0 0.728 1.58 1.455 3.026 2.051 4.491 7.526 18.375 15.042 36.774 22.563 55.173 1.221 2.978 2.44 5.979 3.669 8.972 0.378 0.893 0.86 1.753 1.34 2.72 1.066 0.091 2.051 0.228 3.026 0.24 1.993 0.034 3.969 0.028 5.974 0.028 92.187 0 184.352 0 276.534 0 1.729 0 3.476 0 5.029 0 0.711 1.171-0.091 1.604-0.578 2.077-4.775 4.725-9.577 9.394-14.362 14.091-3.476 3.391-6.954 6.748-10.379 10.172-1.221 1.221-2.531 1.878-4.284 1.753-1.221-0.091-2.47-0.028-3.719-0.028-83.984 0-167.957 0-251.943 0-1.729 0-3.448 0.078-5.368 0.115-0.687 1.546-1.364 3.002-1.959 4.475-8.616 21.021-17.218 42.043-25.804 63.078-0.528 1.249-1.066 2.497-1.638 3.819-1.1 0.058-2.077 0.149-3.059 0.178-1.249 0.034-2.47 0-3.719 0-127.591 0-255.161 0-382.763 0-1.729 0-3.448 0.034-5.168 0.078-0.985 1.527-0.678 3.059-0.687 4.491-0.058 10.436-0.058 20.872-0.078 31.309 0 1.364 0.028 2.738-0.058 4.101-0.034 0.728-0.24 1.431-0.413 2.32-0.871 0.183-1.695 0.447-2.52 0.504-1.364 0.091-2.738 0.058-4.101 0.058-15.157 0-30.301 0-45.457 0-1.58 0-3.226 0.183-4.925-0.562-0.149-0.836-0.389-1.662-0.447-2.497-0.078-1.489-0.058-2.978-0.058-4.475 0-28.95 0-57.882 0-86.837 0-1.844 0.149-3.712-0.413-5.682-1.249-0.058-2.349-0.178-3.448-0.178-47.989-0.471-212.11-0.228-215.74 0.332-0.917 1.042-0.687 2.32-0.687 3.563-0.034 5.086-0.034 10.196-0.034 15.282 0 11.056 0 22.113 0 33.177 0 1.477-0.078 2.944-0.091 4.217-1.171 1.1-2.349 0.802-3.415 0.802-7.217 0.034-14.412 0.028-21.617 0.028-9.322 0-18.639 0-27.959 0-1.364 0-2.72 0-4.193 0-0.24-0.871-0.528-1.57-0.596-2.257-0.091-0.86-0.034-1.729-0.034-2.613 0-53.785 0-107.584 0.028-161.37 0-1.57-0.413-3.242 0.578-4.675 3.035-0.528 53.156-0.562 56.783-0.028 0.149 0.619 0.428 1.306 0.48 1.993 0.091 1.221 0.058 2.47 0.058 3.719 0 15.282 0 30.564 0 45.836 0 1.477 0.078 2.944 0.128 4.548 0.86 0.24 1.546 0.538 2.233 0.596 1.364 0.091 2.738 0.078 4.101 0.078 69.206 0 138.389 0 207.595 0 1.844 0 3.712-0.091 5.706-0.149 0.206-0.836 0.48-1.513 0.538-2.22 0.091-1.489 0.058-2.978 0.058-4.475 0-29.075 0-58.132 0.028-87.212 0-1.844 0.128-3.689 0.206-5.326 1.421-1.249 2.853-0.836 4.169-0.836 9.452-0.034 18.879-0.028 28.331-0.028 6.954 0 13.908 0 20.872 0 1.171-0.058 2.382 0.078 4.078 0.149z",
          "M954.879 198.043c0 9.807-0.028 19.624 0 29.431 0.028 6.003-0.711 11.925-2.646 17.597-6.324 18.709-19.177 30.679-38.114 35.972-7.814 2.177-15.861 2.67-23.989 1.844-6.863-0.687-13.529-2.051-19.705-5.086-17.78-8.716-28.388-22.798-31.035-42.599-0.378-2.819-0.596-5.682-0.596-8.534-0.058-19.265-0.028-38.493-0.034-57.732 0-6.867 0.871-13.669 3.299-20.108 6.714-17.916 19.475-29.258 37.846-34.348 6.767-1.878 13.719-1.977 20.69-1.787 5.874 0.178 11.564 1.121 17.16 2.944 16.367 5.326 33.211 20.517 36.347 43.349 0.471 3.426 0.687 6.917 0.728 10.379 0.115 9.565 0.058 19.12 0.034 28.686 0.028 0 0 0 0 0z",
          "M546.447 198.172c0 9.428-0.028 18.879 0.028 28.309 0.028 6.508-0.653 12.913-2.795 19.065-6.45 18.49-19.292 30.324-38.102 35.525-7.699 2.127-15.611 2.68-23.612 1.827-4.319-0.471-8.592-1.121-12.763-2.382-20.037-6.037-34.648-22.592-37.989-43.224-0.562-3.415-0.836-6.917-0.836-10.379-0.078-19.365-0.034-38.745-0.034-58.117 0-6.003 0.711-11.925 2.555-17.616 6.21-19.086 19.177-31.184 38.378-36.659 6.748-1.927 13.719-2.027 20.69-1.868 6.243 0.149 12.32 1.215 18.25 3.242 15.58 5.35 32.019 20.058 35.492 42.456 0.596 3.819 0.778 7.665 0.778 11.502 0 9.428-0.028 18.879-0.028 28.309 0 0 0 0 0 0z"
        ],
        "attrs": [
          {},
          {},
          {},
          {},
          {}
        ],
        "width": 1369,
        "isMulticolor": false,
        "isMulticolor2": false,
        "grid": 0,
        "tags": [
          "logo"
        ]
      },
      "attrs": [
        {},
        {},
        {},
        {},
        {}
      ],
      "properties": {
        "order": 34,
        "id": 11,
        "name": "logo",
        "prevSize": 32,
        "code": 52
      },
      "setIdx": 1,
      "setId": 0,
      "iconIdx": 4
    },
    {
      "icon": {
        "paths": [
          "M679.366 431.097l-274.614 274.614-122.054-122.054 274.614-274.614 122.054 122.054z",
          "M313.091 655.118l-30.203-71.921 122.258 122.258-71.921-30.203z",
          "M130.423 847.866l248.844-254.601 23.014 20.135-271.858 274.737z",
          "M781.056 248.39l-183.072 183.072-40.69-40.69 183.072-183.072 40.69 40.69z",
          "M709.869 460.955l-40.69 40.69-183.072-183.072 40.69-40.69 183.072 183.072z",
          "M852.265 257.114l-40.69 40.69-122.054-122.054 40.69-40.69 122.054 122.054z"
        ],
        "attrs": [
          {},
          {},
          {},
          {},
          {},
          {}
        ],
        "width": 983,
        "isMulticolor": false,
        "isMulticolor2": false,
        "grid": 0,
        "tags": [
          "injection"
        ]
      },
      "attrs": [
        {},
        {},
        {},
        {},
        {},
        {}
      ],
      "properties": {
        "order": 35,
        "id": 0,
        "name": "injection",
        "prevSize": 32,
        "code": 53
      },
      "setIdx": 1,
      "setId": 0,
      "iconIdx": 5
    },
    {
      "icon": {
        "paths": [
          "M128 768h768v-85.332h-768v85.332zM128 554.668h768v-85.334h-768v85.334zM128 256v85.33h768v-85.33h-768z"
        ],
        "attrs": [
          {}
        ],
        "isMulticolor": false,
        "isMulticolor2": false,
        "grid": 0,
        "tags": [
          "menu"
        ]
      },
      "attrs": [
        {}
      ],
      "properties": {
        "order": 36,
        "id": 24,
        "name": "menu",
        "prevSize": 32,
        "code": 54
      },
      "setIdx": 1,
      "setId": 0,
      "iconIdx": 6
    },
    {
      "icon": {
        "paths": [
          "M810 273.596l-59.596-59.596-238.404 238.404-238.404-238.404-59.596 59.596 238.404 238.404-238.404 238.404 59.596 59.596 238.404-238.404 238.404 238.404 59.596-59.596-238.404-238.404z"
        ],
        "attrs": [
          {}
        ],
        "isMulticolor": false,
        "isMulticolor2": false,
        "grid": 0,
        "tags": [
          "close"
        ]
      },
      "attrs": [
        {}
      ],
      "properties": {
        "order": 37,
        "id": 25,
        "name": "close",
        "prevSize": 32,
        "code": 55
      },
      "setIdx": 1,
      "setId": 0,
      "iconIdx": 7
    },
    {
      "icon": {
        "paths": [
          "M427.4 512v0 0l334.4-348.2c8.4-8.6 8.2-22.8-0.4-31.6l-59.8-61.2c-8.6-8.8-22.6-9-31-0.4l-408.4 425.2c-4.4 4.4-6.4 10.4-6 16.2-0.2 6 1.8 11.8 6 16.2l408.4 425.4c8.4 8.6 22.4 8.4 31-0.4l59.8-61.2c8.6-8.8 8.8-23 0.4-31.6l-334.4-348.4z"
        ],
        "attrs": [
          {}
        ],
        "isMulticolor": false,
        "isMulticolor2": false,
        "grid": 0,
        "tags": [
          "arr-left"
        ]
      },
      "attrs": [
        {}
      ],
      "properties": {
        "order": 38,
        "id": 19,
        "name": "arr-left",
        "prevSize": 32,
        "code": 56
      },
      "setIdx": 1,
      "setId": 0,
      "iconIdx": 8
    },
    {
      "icon": {
        "paths": [
          "M596.6 512v0 0l-334.4-348.2c-8.4-8.6-8.2-22.8 0.4-31.6l59.8-61.2c8.6-8.8 22.6-9 31-0.4l408.4 425.4c4.4 4.4 6.4 10.4 6 16.2 0.2 6-1.8 11.8-6 16.2l-408.4 425.2c-8.4 8.6-22.4 8.4-31-0.4l-59.8-61.2c-8.6-8.8-8.8-23-0.4-31.6l334.4-348.4z"
        ],
        "attrs": [
          {}
        ],
        "isMulticolor": false,
        "isMulticolor2": false,
        "grid": 0,
        "tags": [
          "arr-right"
        ]
      },
      "attrs": [
        {}
      ],
      "properties": {
        "order": 39,
        "id": 18,
        "name": "arr-right",
        "prevSize": 32,
        "code": 57
      },
      "setIdx": 1,
      "setId": 0,
      "iconIdx": 9
    },
    {
      "icon": {
        "paths": [
          "M512 427.4v0 0l348.4 334.4c8.6 8.4 22.8 8.2 31.6-0.4l61.2-59.8c8.8-8.6 9-22.6 0.4-31l-425.4-408.4c-4.4-4.4-10.4-6.4-16.2-6-6-0.2-11.8 1.8-16.2 6l-425.4 408.4c-8.6 8.4-8.4 22.4 0.4 31l61.2 59.8c8.8 8.6 23 8.8 31.6 0.4l348.4-334.4z"
        ],
        "attrs": [
          {}
        ],
        "isMulticolor": false,
        "isMulticolor2": false,
        "grid": 0,
        "tags": [
          "arr-up"
        ]
      },
      "attrs": [
        {}
      ],
      "properties": {
        "order": 40,
        "id": 17,
        "name": "arr-up",
        "prevSize": 32,
        "code": 97
      },
      "setIdx": 1,
      "setId": 0,
      "iconIdx": 10
    },
    {
      "icon": {
        "paths": [
          "M512 596.6v0 0l348.4-334.4c8.6-8.4 22.8-8.2 31.6 0.4l61.2 59.8c8.8 8.6 9 22.6 0.4 31l-425.4 408.4c-4.4 4.4-10.4 6.4-16.2 6-6 0.2-11.8-1.8-16.2-6l-425.4-408.4c-8.6-8.4-8.4-22.4 0.4-31l61.2-59.8c8.8-8.6 23-8.8 31.6-0.4l348.4 334.4z"
        ],
        "attrs": [
          {}
        ],
        "isMulticolor": false,
        "isMulticolor2": false,
        "grid": 0,
        "tags": [
          "arr-down"
        ]
      },
      "attrs": [
        {}
      ],
      "properties": {
        "order": 41,
        "id": 16,
        "name": "arr-down",
        "prevSize": 32,
        "code": 98
      },
      "setIdx": 1,
      "setId": 0,
      "iconIdx": 11
    },
    {
      "icon": {
        "paths": [
          "M512 224l-320 256v416h224v-256h192v256h224v-416l-320-256z",
          "M512 128l-192 153.6v-89.6h-128v191.998l-64 50.998 23.020 22.768 360.98-288.784 360.98 288.786 23.020-22.77-384-306.996z"
        ],
        "attrs": [
          {},
          {}
        ],
        "isMulticolor": false,
        "isMulticolor2": false,
        "grid": 0,
        "tags": [
          "home"
        ]
      },
      "attrs": [
        {},
        {}
      ],
      "properties": {
        "order": 42,
        "id": 6,
        "name": "home",
        "prevSize": 32,
        "code": 99
      },
      "setIdx": 1,
      "setId": 0,
      "iconIdx": 12
    },
    {
      "icon": {
        "paths": [
          "M192 352h160v-160h-160v160zM432 832h160v-160h-160v160zM192 832h160v-160h-160v160zM192 592h160v-160h-160v160zM432 592h160v-160h-160v160zM672 192v160h160v-160h-160zM432 352h160v-160h-160v160zM672 592h160v-160h-160v160zM672 832h160v-160h-160v160z"
        ],
        "attrs": [
          {}
        ],
        "isMulticolor": false,
        "isMulticolor2": false,
        "grid": 0,
        "tags": [
          "apps"
        ]
      },
      "attrs": [
        {}
      ],
      "properties": {
        "order": 43,
        "id": 20,
        "name": "apps",
        "prevSize": 32,
        "code": 100
      },
      "setIdx": 1,
      "setId": 0,
      "iconIdx": 13
    },
    {
      "icon": {
        "paths": [
          "M146.6 782c0 0 0 0 0 0 3.6 6 5.6 12.8 5.6 20.4l-24.2 125.6 112.4-44.2c5.4-2.2 11.2-3.4 17.4-3.4 5.6 0 11 1 16 2.8 0 0 0.2 0 0.4 0 0.8 0.4 1.6 0.6 2.4 1 35.6 14.6 74.8 22.8 115.8 22.8 92.6 0 175.2-41 229.6-105.2-28.2 7.2-57.8 11.4-88.2 11.4-191.8 0-347.4-150-347.4-335 0-23.6 2.6-46.4 7.4-68.6-60 52.2-97.8 127.6-97.8 211.6 0 56.8 17.2 110.4 47 155 1.2 1.6 2.4 3.8 3.6 5.8z",
          "M580.6 96c-167.4 0-307.2 114.4-340 266.4-4.8 22.2-7.4 45-7.4 68.6 0 185 155.4 335 347.4 335 30.6 0 60-4.2 88.2-11.4 16.2-4.2 32.2-9 47.6-15.2 1-0.4 1.8-0.8 2.8-1.2 0.2 0 0.4 0 0.4-0.2 5.8-2.2 12.2-3.4 18.6-3.4 7.2 0 14 1.4 20.2 4l137.2 51.6-34-147.6c0-8.8 2.4-17.2 6.6-24.4 0 0 0 0 0 0 1.2-2.2 2.8-4.2 4.2-6.2 34.8-52.2 55-114.4 55-181 0.6-185-154.8-335-346.8-335z"
        ],
        "attrs": [
          {},
          {}
        ],
        "isMulticolor": false,
        "isMulticolor2": false,
        "grid": 0,
        "tags": [
          "chat"
        ]
      },
      "attrs": [
        {},
        {}
      ],
      "properties": {
        "order": 44,
        "id": 5,
        "name": "chat",
        "prevSize": 32,
        "code": 101
      },
      "setIdx": 1,
      "setId": 0,
      "iconIdx": 14
    },
    {
      "icon": {
        "paths": [
          "M896 896c0 0 0-52.8-4.4-80.4-3.6-21.8-33.8-50.6-162.2-97.8-126.4-46.4-118.6-23.8-118.6-109.2 0-55.4 28.2-23.2 46.2-128.4 7-41.4 12.6-13.8 27.8-80.2 8-34.8-5.4-37.4-3.8-54s3.2-31.4 6.2-65.4c3.6-42-35.4-152.6-175.2-152.6s-178.8 110.6-175 152.8c3 33.8 4.6 48.8 6.2 65.4s-11.8 19.2-3.8 54c15.2 66.2 20.8 38.6 27.8 80.2 18 105.2 46.2 73 46.2 128.4 0 85.6 7.8 63-118.6 109.2-128.4 47-158.8 76-162.2 97.8-4.6 27.4-4.6 80.2-4.6 80.2h768z"
        ],
        "attrs": [
          {}
        ],
        "isMulticolor": false,
        "isMulticolor2": false,
        "grid": 0,
        "tags": [
          "user"
        ]
      },
      "attrs": [
        {}
      ],
      "properties": {
        "order": 45,
        "id": 21,
        "name": "user",
        "prevSize": 32,
        "code": 102
      },
      "setIdx": 1,
      "setId": 0,
      "iconIdx": 15
    },
    {
      "icon": {
        "paths": [
          "M959.726 206.684c-0.102-5.666-0.192-10.558-0.192-14.684h-161.67c3.12-69.234 1.024-128 1.024-128s-191.182 0-285.136 0c-0.674 0-1.338 0.044-2 0.112-0.66-0.068-1.324-0.112-2-0.112-93.954 0-285.862 0-285.862 0s-2.096 58.766 1.024 128h-160.914v41.096c0 0.228 0 0.456 0 0.684v22.22h0.322c1.622 52.192 9.96 121.998 44.666 193.458 29.436 60.614 71.824 111.328 125.992 150.734 44.844 32.624 96.082 56.128 152.41 70.168 32.53 34.718 64.61 53.858 92.61 61.554v71.25c-4 21.166-28.28 92.836-197.532 92.836h-26.468v64h512v-64h-26.356c-198.568 0-197.644-98.668-197.644-98.668v-65.428c28-7.686 59.46-26.748 91.82-61.288 56.738-14.008 108.144-37.602 153.266-70.426 54.164-39.406 96.524-90.12 125.96-150.734 47.36-97.522 45.606-192.010 44.68-242.772zM166.524 421.49c-28.92-59.558-36.488-119.498-38.15-165.49h100.974c1.736 17.828 3.932 35.402 6.712 51.96 17.026 101.418 40.426 190.986 84.708 270.018-67.676-34.282-120.828-87.68-154.244-156.488zM857.474 421.49c-33.614 69.22-87.206 122.842-155.458 157.1 44.43-79.182 67.632-168.95 84.704-270.628 2.78-16.56 4.976-34.134 6.712-51.96h102.192c-1.662 45.99-9.228 105.93-38.15 165.488z"
        ],
        "attrs": [
          {}
        ],
        "isMulticolor": false,
        "isMulticolor2": false,
        "grid": 0,
        "tags": [
          "trophy"
        ]
      },
      "attrs": [
        {}
      ],
      "properties": {
        "order": 46,
        "id": 23,
        "name": "trophy",
        "prevSize": 32,
        "code": 103
      },
      "setIdx": 1,
      "setId": 0,
      "iconIdx": 16
    },
    {
      "icon": {
        "paths": [
          "M544 544v-128h-64v128h-128v64h128v128h64v-128h128v-64h-96z",
          "M672 256v-64c-1-36.4-27.2-64-64.4-64h-198.2c-37.2 0-57.4 27.4-57.4 64v64h-256v640h832v-640h-256zM384 196.2c0-20.4 5.8-36.2 27.4-36.2h194.2c20.8 0 34.4 15.4 34.4 36.2v59.8h-256v-59.8zM704 640h-128v128h-128v-128h-128v-128h128v-128h128v128h128v128z"
        ],
        "attrs": [
          {},
          {}
        ],
        "isMulticolor": false,
        "isMulticolor2": false,
        "grid": 0,
        "tags": [
          "medkit"
        ]
      },
      "attrs": [
        {},
        {}
      ],
      "properties": {
        "order": 47,
        "id": 22,
        "name": "medkit",
        "prevSize": 32,
        "code": 104
      },
      "setIdx": 1,
      "setId": 0,
      "iconIdx": 17
    },
    {
      "icon": {
        "paths": [
          "M848.4 518.6c27.6-9 47.6-35 47.6-65.6 0-38-30.8-69-69-69h-205.2c4-50 20-107.2 2.2-174.6-15-56.8-78.8-99.4-104.8-73.6-10 9.8-7 30.4-7 67.6 0 85.6-35.6 172.2-79.6 217.4-18.8 19.4-50.4 26-80.4 27.2v-32h-224.2v480h224v-64c41.2-1 105.2 10.4 151.6 13.2 104 6.2 204-4.8 252.6-16.2s70-26 70-61.2c0-12.8-3.8-24.6-10.2-34.6 23.6-9.4 40.2-32.4 40.2-59.4 0-14.4-4.8-27.6-12.8-38.4 23.8-9.2 40.8-32.4 40.8-59.6-0.2-25-14.8-46.8-35.8-57.2zM224 831.4c-17.6 0-32-14.2-32-32 0-17.6 14.4-32 32-32s32 14.2 32 32c0 17.6-14.4 32-32 32z"
        ],
        "attrs": [
          {}
        ],
        "isMulticolor": false,
        "isMulticolor2": false,
        "grid": 0,
        "tags": [
          "like"
        ]
      },
      "attrs": [
        {}
      ],
      "properties": {
        "order": 48,
        "id": 12,
        "name": "like",
        "prevSize": 32,
        "code": 105
      },
      "setIdx": 1,
      "setId": 0,
      "iconIdx": 18
    },
    {
      "icon": {
        "paths": [
          "M227.4 608c-55 0-99.4-42.8-99.4-96 0-53 44.4-96 99.4-96 55.2 0 99.6 43 99.6 96 0 53.2-44.4 96-99.6 96z",
          "M512 608c-55 0-99.6-42.8-99.6-96 0-53 44.6-96 99.6-96s99.4 43 99.4 96c0 53.2-44.4 96-99.4 96z",
          "M796.4 608c-55 0-99.6-42.8-99.6-96 0-53 44.4-96 99.6-96 55 0 99.6 43 99.6 96 0 53.2-44.4 96-99.6 96z"
        ],
        "attrs": [
          {},
          {},
          {}
        ],
        "isMulticolor": false,
        "isMulticolor2": false,
        "grid": 0,
        "tags": [
          "more"
        ]
      },
      "attrs": [
        {},
        {},
        {}
      ],
      "properties": {
        "order": 49,
        "id": 3,
        "name": "more",
        "prevSize": 32,
        "code": 106
      },
      "setIdx": 1,
      "setId": 0,
      "iconIdx": 19
    },
    {
      "icon": {
        "paths": [
          "M896.8 416h-688l682.4-136c17-3.2 28-19.4 24.8-36.2l-17.8-90.8c-3.2-16.8-19.6-27.6-36.6-24.4l-740.2 147.2c-17 3.2-28 19.4-24.8 36l17.8 90.8c1.2 5.6 4.2 10.4 7.8 14.4-14.8 2.4-26.2 14.4-26.2 29.8v418.4c0 17 14 30.8 31.2 30.8h769.6c17.2 0 31.2-13.8 31.2-30.8v-418.4c-0-17-14-30.8-31.2-30.8zM610 804.8l-101.4-72.6-101.4 72.6 39-116.8-101.6-72h125.4l38.4-116.8 38.6 116.8h125.4l-101.6 72 39.2 116.8z"
        ],
        "attrs": [
          {}
        ],
        "isMulticolor": false,
        "isMulticolor2": false,
        "grid": 0,
        "tags": [
          "film"
        ]
      },
      "attrs": [
        {}
      ],
      "properties": {
        "order": 50,
        "id": 2,
        "name": "film",
        "prevSize": 32,
        "code": 107
      },
      "setIdx": 1,
      "setId": 0,
      "iconIdx": 20
    },
    {
      "icon": {
        "paths": [
          "M1017.2 297.6c0-90-66.2-162.4-148-162.4-110.8-5.2-223.8-7.2-339.2-7.2-6 0-12 0-18 0s-12 0-18 0c-115.2 0-228.4 2-339.2 7.2-81.6 0-147.8 72.8-147.8 162.8-5 71.2-7.2 142.4-7 213.6-0.2 71.2 2 142.4 6.8 213.8 0 90 66.2 163 147.8 163 116.4 5.4 235.8 7.8 357.2 7.6 121.6 0.4 240.6-2 357.2-7.6 81.8 0 148-73 148-163 4.8-71.4 7-142.6 6.8-214 0.4-71.2-1.8-142.4-6.6-213.8zM414 707.8v-393l290 196.4-290 196.6z"
        ],
        "attrs": [
          {}
        ],
        "isMulticolor": false,
        "isMulticolor2": false,
        "grid": 0,
        "tags": [
          "youtube"
        ]
      },
      "attrs": [
        {}
      ],
      "properties": {
        "order": 51,
        "id": 4,
        "name": "youtube",
        "prevSize": 32,
        "code": 108
      },
      "setIdx": 1,
      "setId": 0,
      "iconIdx": 21
    },
    {
      "icon": {
        "paths": [
          "M512 745.372l249.66 150.628-66.042-284.132 220.382-191.050-290.534-24.95-113.466-267.868-113.486 267.868-290.514 24.95 220.384 191.050-66.062 284.132z"
        ],
        "attrs": [
          {}
        ],
        "isMulticolor": false,
        "isMulticolor2": false,
        "grid": 0,
        "tags": [
          "star"
        ]
      },
      "attrs": [
        {}
      ],
      "properties": {
        "order": 52,
        "id": 13,
        "name": "star",
        "prevSize": 32,
        "code": 109
      },
      "setIdx": 1,
      "setId": 0,
      "iconIdx": 22
    },
    {
      "icon": {
        "paths": [
          "M916 420.818l-290.534-24.952-113.466-267.866-113.486 267.868-290.514 24.95 220.384 191.048-66.062 284.134 249.678-150.628 249.66 150.628-66.042-284.132 220.382-191.050zM545.062 690.574l-33.062-19.948-0.004-378.554 69.58 164.26 178.108 15.296-135.138 117.15 40.484 174.174-119.968-72.378z"
        ],
        "attrs": [
          {}
        ],
        "isMulticolor": false,
        "isMulticolor2": false,
        "grid": 0,
        "tags": [
          "star-half"
        ]
      },
      "attrs": [
        {}
      ],
      "properties": {
        "order": 53,
        "id": 14,
        "name": "star-half",
        "prevSize": 32,
        "code": 110
      },
      "setIdx": 1,
      "setId": 0,
      "iconIdx": 23
    },
    {
      "icon": {
        "paths": [
          "M916 420.818l-290.534-24.952-113.466-267.866-113.486 267.868-290.514 24.95 220.384 191.048-66.062 284.134 249.678-150.628 249.66 150.628-66.042-284.132 220.382-191.050zM545.062 690.572l-33.062-19.948-153.036 92.328 40.496-174.172-135.142-117.152 178.084-15.296 69.594-164.262 69.58 164.26 178.108 15.296-135.138 117.15 40.484 174.174-119.968-72.378z"
        ],
        "attrs": [
          {}
        ],
        "isMulticolor": false,
        "isMulticolor2": false,
        "grid": 0,
        "tags": [
          "star-blank"
        ]
      },
      "attrs": [
        {}
      ],
      "properties": {
        "order": 54,
        "id": 15,
        "name": "star-blank",
        "prevSize": 32,
        "code": 111
      },
      "setIdx": 1,
      "setId": 0,
      "iconIdx": 24
    },
    {
      "icon": {
        "paths": [
          "M890 773.4l-169.6-171.8c27.6-48.2 42-101.8 42-155.8 0-175.2-142.4-317.8-317.2-317.8s-317.2 142.6-317.2 317.8c0 175.2 142.4 317.8 317.2 317.8 55.8 0 111-15.4 160.2-44.8l168.8 171.2c3.8 3.8 9.2 6.2 14.6 6.2s10.8-2.2 14.6-6.2l86.6-87.6c8-8.2 8-21-0-29zM445.2 251.8c106.8 0 193.6 87 193.6 194s-86.8 194-193.6 194c-106.8 0-193.6-87-193.6-194s86.8-194 193.6-194z"
        ],
        "attrs": [
          {}
        ],
        "isMulticolor": false,
        "isMulticolor2": false,
        "grid": 0,
        "tags": [
          "search"
        ]
      },
      "attrs": [
        {}
      ],
      "properties": {
        "order": 55,
        "id": 26,
        "name": "search",
        "prevSize": 32,
        "code": 112
      },
      "setIdx": 1,
      "setId": 0,
      "iconIdx": 25
    },
    {
      "icon": {
        "paths": [
          "M228.887 1.256c-67.125 5.023-142.013 25.343-213.476 57.878l-14.841 6.735-0.342 98.29-0.228 98.404 2.511 0.457c2.283 0.457 139.616 9.932 143.383 9.818 1.027 0 1.37-9.361 1.37-43.152 0-55.367 1.484-65.869 10.046-73.404 15.526-13.699 66.326-23.631 104.569-20.434 48.86 3.881 75.573 25.115 83.336 66.098 2.283 11.987 2.397 36.873 0.228 51.485-2.626 16.895-6.165 26.371-15.982 42.467-11.53 18.95-18.836 25.8-61.531 57.878-39.499 29.567-57.307 44.293-75.801 62.559-31.394 31.165-45.663 54.91-54.111 90.071-7.534 31.736-7.991 52.855-3.196 152.63l3.767 80.71h138.816v-5.594c0-8.219 6.621-153.315 7.42-162.79 1.256-13.813 4.909-28.083 9.818-38.129 8.105-16.325 25.343-32.421 74.774-69.294 32.763-24.43 46.805-36.302 66.098-55.709 40.869-41.211 60.161-73.518 70.55-117.697 8.904-37.558 10.845-87.331 4.909-121.236-7.649-43.266-26.485-78.998-57.422-108.907-36.188-34.932-85.619-53.883-154.913-59.248-16.895-1.256-51.371-1.256-69.751 0.114z",
          "M186.991 833.926c-29.453 5.594-53.654 23.859-66.668 50.23-7.763 15.64-9.818 25.457-9.818 44.522 0 17.809 2.055 28.197 8.105 41.325 7.306 15.526 21.918 31.85 35.846 40.184 8.334 4.909 22.946 9.932 33.905 11.644 11.53 1.712 39.385 0.685 49.088-1.827 35.047-9.247 61.531-38.7 67.924-75.459 8.904-51.371-18.95-96.235-67.81-109.135-11.644-2.968-38.243-3.767-50.572-1.484z"
        ],
        "attrs": [
          {},
          {}
        ],
        "width": 515,
        "isMulticolor": false,
        "isMulticolor2": false,
        "grid": 0,
        "tags": [
          "qustionmark"
        ]
      },
      "attrs": [
        {},
        {}
      ],
      "properties": {
        "order": 56,
        "id": 27,
        "name": "questionmark",
        "prevSize": 32,
        "code": 63
      },
      "setIdx": 1,
      "setId": 0,
      "iconIdx": 26
    },
    {
      "icon": {
        "paths": [
          "M512 0c-283.119 0-512 228.881-512 512 0 109.559 34.712 211.525 94.373 295.051v148.61h162.712c74.847 43.39 162.712 68.339 254.915 68.339 283.119 0 512-228.881 512-512s-228.881-512-512-512z"
        ],
        "attrs": [
          {}
        ],
        "isMulticolor": false,
        "isMulticolor2": false,
        "grid": 0,
        "tags": [
          "bubble"
        ]
      },
      "attrs": [
        {}
      ],
      "properties": {
        "order": 57,
        "id": 28,
        "name": "bubble",
        "prevSize": 32,
        "code": 113
      },
      "setIdx": 1,
      "setId": 0,
      "iconIdx": 27
    }
  ],
  "height": 1024,
  "metadata": {
    "name": "icons"
  },
  "preferences": {
    "showGlyphs": true,
    "showCodes": true,
    "showQuickUse": true,
    "showQuickUse2": true,
    "showSVGs": true,
    "fontPref": {
      "prefix": "icon-",
      "metadata": {
        "fontFamily": "icons",
        "majorVersion": 1,
        "minorVersion": 0
      },
      "metrics": {
        "emSize": 1024,
        "baseline": 6.25,
        "whitespace": 50
      },
      "embed": false,
      "showSelector": true,
      "cssVars": true,
      "cssVarsFormat": "less"
    },
    "imagePref": {
      "prefix": "icon-",
      "png": true,
      "useClassSelector": true,
      "color": 0,
      "bgColor": 16777215
    },
    "historySize": 100,
    "gridSize": 16
  }
}